{
  "routes": [
    {
      "method": "GET",
      "path": "/registration-at-heac-systems",
      "handler": "registration-at-heac-system.find",
      "config": {
        "policies": []
      }
    },
    {
      "method": "GET",
      "path": "/registration-at-heac-systems/count",
      "handler": "registration-at-heac-system.count",
      "config": {
        "policies": []
      }
    },
    {
      "method": "GET",
      "path": "/registration-at-heac-systems/:id",
      "handler": "registration-at-heac-system.findOne",
      "config": {
        "policies": []
      }
    },
    {
      "method": "POST",
      "path": "/registration-at-heac-systems",
      "handler": "registration-at-heac-system.create",
      "config": {
        "policies": []
      }
    },
    {
      "method": "PUT",
      "path": "/registration-at-heac-systems/:id",
      "handler": "registration-at-heac-system.update",
      "config": {
        "policies": []
      }
    },
    {
      "method": "DELETE",
      "path": "/registration-at-heac-systems/:id",
      "handler": "registration-at-heac-system.delete",
      "config": {
        "policies": []
      }
    }
  ]
}
