{
  "paths": {
    "/users-permissions/roles/{id}": {
      "get": {
        "deprecated": false,
        "description": "Retrieve a role depending on its id",
        "responses": {
          "200": {
            "description": "response",
            "content": {
              "application/json": {
                "schema": {
                  "$ref": "#/components/schemas/UsersPermissionsRole"
                }
              }
            }
          },
          "403": {
            "description": "Forbidden",
            "content": {
              "application/json": {
                "schema": {
                  "$ref": "#/components/schemas/Error"
                }
              }
            }
          },
          "404": {
            "description": "Not found",
            "content": {
              "application/json": {
                "schema": {
                  "$ref": "#/components/schemas/Error"
                }
              }
            }
          },
          "default": {
            "description": "unexpected error",
            "content": {
              "application/json": {
                "schema": {
                  "$ref": "#/components/schemas/Error"
                }
              }
            }
          }
        },
        "summary": "",
        "tags": [
          "UsersPermissions - Role"
        ],
        "parameters": [
          {
            "name": "id",
            "in": "path",
            "description": "",
            "deprecated": false,
            "required": true,
            "schema": {
              "type": "string"
            }
          }
        ]
      }
    },
    "/users-permissions/roles": {
      "get": {
        "deprecated": false,
        "description": "Retrieve all role documents",
        "responses": {
          "200": {
            "description": "response",
            "content": {
              "application/json": {
                "schema": {
                  "type": "array",
                  "items": {
                    "$ref": "#/components/schemas/UsersPermissionsRole"
                  }
                }
              }
            }
          },
          "403": {
            "description": "Forbidden",
            "content": {
              "application/json": {
                "schema": {
                  "$ref": "#/components/schemas/Error"
                }
              }
            }
          },
          "404": {
            "description": "Not found",
            "content": {
              "application/json": {
                "schema": {
                  "$ref": "#/components/schemas/Error"
                }
              }
            }
          },
          "default": {
            "description": "unexpected error",
            "content": {
              "application/json": {
                "schema": {
                  "$ref": "#/components/schemas/Error"
                }
              }
            }
          }
        },
        "summary": "",
        "tags": [
          "UsersPermissions - Role"
        ],
        "parameters": [
          {
            "name": "_limit",
            "in": "query",
            "required": false,
            "description": "Maximum number of results possible",
            "schema": {
              "type": "integer"
            },
            "deprecated": false
          },
          {
            "name": "_sort",
            "in": "query",
            "required": false,
            "description": "Sort according to a specific field.",
            "schema": {
              "type": "string"
            },
            "deprecated": false
          },
          {
            "name": "_start",
            "in": "query",
            "required": false,
            "description": "Skip a specific number of entries (especially useful for pagination)",
            "schema": {
              "type": "integer"
            },
            "deprecated": false
          },
          {
            "name": "=",
            "in": "query",
            "required": false,
            "description": "Get entries that matches exactly your input",
            "schema": {
              "type": "string"
            },
            "deprecated": false
          },
          {
            "name": "_ne",
            "in": "query",
            "required": false,
            "description": "Get records that are not equals to something",
            "schema": {
              "type": "string"
            },
            "deprecated": false
          },
          {
            "name": "_lt",
            "in": "query",
            "required": false,
            "description": "Get record that are lower than a value",
            "schema": {
              "type": "string"
            },
            "deprecated": false
          },
          {
            "name": "_lte",
            "in": "query",
            "required": false,
            "description": "Get records that are lower than or equal to a value",
            "schema": {
              "type": "string"
            },
            "deprecated": false
          },
          {
            "name": "_gt",
            "in": "query",
            "required": false,
            "description": "Get records that are greater than a value",
            "schema": {
              "type": "string"
            },
            "deprecated": false
          },
          {
            "name": "_gte",
            "in": "query",
            "required": false,
            "description": "Get records that are greater than  or equal a value",
            "schema": {
              "type": "string"
            },
            "deprecated": false
          },
          {
            "name": "_contains",
            "in": "query",
            "required": false,
            "description": "Get records that contains a value",
            "schema": {
              "type": "string"
            },
            "deprecated": false
          },
          {
            "name": "_containss",
            "in": "query",
            "required": false,
            "description": "Get records that contains (case sensitive) a value",
            "schema": {
              "type": "string"
            },
            "deprecated": false
          },
          {
            "name": "_in",
            "in": "query",
            "required": false,
            "description": "Get records that matches any value in the array of values",
            "schema": {
              "type": "array",
              "items": {
                "type": "string"
              }
            },
            "deprecated": false
          },
          {
            "name": "_nin",
            "in": "query",
            "required": false,
            "description": "Get records that doesn't match any value in the array of values",
            "schema": {
              "type": "array",
              "items": {
                "type": "string"
              }
            },
            "deprecated": false
          }
        ]
      },
      "post": {
        "deprecated": false,
        "description": "Create a new role",
        "responses": {
          "200": {
            "description": "response",
            "content": {
              "application/json": {
                "schema": {
                  "$ref": "#/components/schemas/UsersPermissionsRole"
                }
              }
            }
          },
          "403": {
            "description": "Forbidden",
            "content": {
              "application/json": {
                "schema": {
                  "$ref": "#/components/schemas/Error"
                }
              }
            }
          },
          "404": {
            "description": "Not found",
            "content": {
              "application/json": {
                "schema": {
                  "$ref": "#/components/schemas/Error"
                }
              }
            }
          },
          "default": {
            "description": "unexpected error",
            "content": {
              "application/json": {
                "schema": {
                  "$ref": "#/components/schemas/Error"
                }
              }
            }
          }
        },
        "summary": "",
        "tags": [
          "UsersPermissions - Role"
        ],
        "requestBody": {
          "description": "",
          "required": true,
          "content": {
            "application/json": {
              "schema": {
                "$ref": "#/components/schemas/NewUsersPermissionsRole"
              }
            }
          }
        }
      }
    },
    "/users-permissions/roles/{role}": {
      "put": {
        "deprecated": false,
        "description": "Update a role",
        "responses": {
          "200": {
            "description": "response",
            "content": {
              "application/json": {
                "schema": {
                  "$ref": "#/components/schemas/UsersPermissionsRole"
                }
              }
            }
          },
          "403": {
            "description": "Forbidden",
            "content": {
              "application/json": {
                "schema": {
                  "$ref": "#/components/schemas/Error"
                }
              }
            }
          },
          "404": {
            "description": "Not found",
            "content": {
              "application/json": {
                "schema": {
                  "$ref": "#/components/schemas/Error"
                }
              }
            }
          },
          "default": {
            "description": "unexpected error",
            "content": {
              "application/json": {
                "schema": {
                  "$ref": "#/components/schemas/Error"
                }
              }
            }
          }
        },
        "summary": "",
        "tags": [
          "UsersPermissions - Role"
        ],
        "parameters": [
          {
            "name": "role",
            "in": "path",
            "description": "",
            "deprecated": false,
            "required": true,
            "schema": {
              "type": "string"
            }
          }
        ],
        "requestBody": {
          "description": "",
          "required": true,
          "content": {
            "application/json": {
              "schema": {
                "$ref": "#/components/schemas/NewUsersPermissionsRole"
              }
            }
          }
        }
      },
      "delete": {
        "deprecated": false,
        "description": "Delete a role",
        "responses": {
          "200": {
            "description": "response",
            "content": {
              "application/json": {
                "schema": {
                  "properties": {
                    "foo": {
                      "type": "string"
                    }
                  }
                }
              }
            }
          },
          "403": {
            "description": "Forbidden",
            "content": {
              "application/json": {
                "schema": {
                  "$ref": "#/components/schemas/Error"
                }
              }
            }
          },
          "404": {
            "description": "Not found",
            "content": {
              "application/json": {
                "schema": {
                  "$ref": "#/components/schemas/Error"
                }
              }
            }
          },
          "default": {
            "description": "unexpected error",
            "content": {
              "application/json": {
                "schema": {
                  "$ref": "#/components/schemas/Error"
                }
              }
            }
          }
        },
        "summary": "",
        "tags": [
          "UsersPermissions - Role"
        ],
        "parameters": [
          {
            "name": "role",
            "in": "path",
            "description": "",
            "deprecated": false,
            "required": true,
            "schema": {
              "type": "string"
            }
          }
        ]
      }
    }
  },
  "components": {
    "schemas": {
      "UsersPermissionsRole": {
        "required": [
          "id",
          "name"
        ],
        "properties": {
          "id": {
            "type": "string"
          },
          "name": {
            "type": "string",
            "minLength": 3
          },
          "description": {
            "type": "string"
          },
          "type": {
            "type": "string"
          },
          "permissions": {
            "type": "array",
            "items": {
              "required": [
                "id",
                "type",
                "controller",
                "action",
                "enabled"
              ],
              "properties": {
                "id": {
                  "type": "string"
                },
                "type": {
                  "type": "string"
                },
                "controller": {
                  "type": "string"
                },
                "action": {
                  "type": "string"
                },
                "enabled": {
                  "type": "boolean"
                },
                "policy": {
                  "type": "string"
                },
                "role": {
                  "type": "string"
                },
                "permissions": {
                  "type": "string"
                },
                "created_by": {
                  "type": "string"
                },
                "updated_by": {
                  "type": "string"
                }
              }
            }
          },
          "users": {
            "type": "array",
            "items": {
              "required": [
                "id",
                "username",
                "email"
              ],
              "properties": {
                "id": {
                  "type": "string"
                },
                "username": {
                  "type": "string"
                },
                "email": {
                  "type": "string"
                },
                "provider": {
                  "type": "string"
                },
                "password": {
                  "type": "string"
                },
                "resetPasswordToken": {
                  "type": "string"
                },
                "confirmationToken": {
                  "type": "string"
                },
                "confirmed": {
                  "type": "boolean"
                },
                "blocked": {
                  "type": "boolean"
                },
                "role": {
                  "type": "string"
                },
                "posts": {
                  "type": "array",
                  "items": {
                    "type": "string"
                  }
                },
                "heac_news": {
                  "type": "array",
                  "items": {
                    "type": "string"
                  }
                },
                "sliders": {
                  "type": "array",
                  "items": {
                    "type": "string"
                  }
                },
                "galleries": {
                  "type": "array",
                  "items": {
                    "type": "string"
                  }
                },
                "programs": {
                  "type": "array",
                  "items": {
                    "type": "string"
                  }
                },
                "electronic_service_services": {
                  "type": "array",
                  "items": {
                    "type": "string"
                  }
                },
                "statistic": {
                  "type": "string"
                },
                "data_exchange": {
                  "type": "string"
                },
                "institution": {
                  "type": "string"
                },
                "admission_statistics": {
                  "type": "array",
                  "items": {
                    "type": "string"
                  }
                },
                "advertisement_form_menus": {
                  "type": "array",
                  "items": {
                    "type": "string"
                  }
                },
                "annual_indicators": {
                  "type": "array",
                  "items": {
                    "type": "string"
                  }
                },
                "e_participations": {
                  "type": "array",
                  "items": {
                    "type": "string"
                  }
                },
                "important_remarks": {
                  "type": "array",
                  "items": {
                    "type": "string"
                  }
                },
                "privacy_policies": {
                  "type": "array",
                  "items": {
                    "type": "string"
                  }
                },
                "privacy_statements": {
                  "type": "array",
                  "items": {
                    "type": "string"
                  }
                },
                "statistical_indicators": {
                  "type": "array",
                  "items": {
                    "type": "string"
                  }
                },
                "terms_of_conditions": {
                  "type": "array",
                  "items": {
                    "type": "string"
                  }
                },
                "membership_tables": {
                  "type": "array",
                  "items": {
                    "type": "string"
                  }
                },
                "instituional_tables": {
                  "type": "array",
                  "items": {
                    "type": "string"
                  }
                },
                "created_by": {
                  "type": "string"
                },
                "updated_by": {
                  "type": "string"
                }
              }
            }
          },
          "users_permissions_permissions": {
            "type": "array",
            "items": {
              "required": [
                "id",
                "type",
                "controller",
                "action",
                "enabled"
              ],
              "properties": {
                "id": {
                  "type": "string"
                },
                "type": {
                  "type": "string"
                },
                "controller": {
                  "type": "string"
                },
                "action": {
                  "type": "string"
                },
                "enabled": {
                  "type": "boolean"
                },
                "policy": {
                  "type": "string"
                },
                "role": {
                  "type": "string"
                },
                "permissions": {
                  "type": "string"
                },
                "created_by": {
                  "type": "string"
                },
                "updated_by": {
                  "type": "string"
                }
              }
            }
          }
        }
      },
      "NewUsersPermissionsRole": {
        "required": [
          "name"
        ],
        "properties": {
          "name": {
            "type": "string",
            "minLength": 3
          },
          "description": {
            "type": "string"
          },
          "type": {
            "type": "string"
          },
          "permissions": {
            "type": "array",
            "items": {
              "type": "string"
            }
          },
          "users": {
            "type": "array",
            "items": {
              "type": "string"
            }
          },
          "users_permissions_permissions": {
            "type": "array",
            "items": {
              "type": "string"
            }
          },
          "created_by": {
            "type": "string"
          },
          "updated_by": {
            "type": "string"
          }
        }
      }
    }
  },
  "tags": [
    {
      "name": "UsersPermissions - Role"
    }
  ]
}