{
  "routes": [
    {
      "method": "GET",
      "path": "/important-remarks",
      "handler": "important-remarks.find",
      "config": {
        "policies": []
      }
    },
    {
      "method": "GET",
      "path": "/important-remarks/count",
      "handler": "important-remarks.count",
      "config": {
        "policies": []
      }
    },
    {
      "method": "GET",
      "path": "/important-remarks/:id",
      "handler": "important-remarks.findOne",
      "config": {
        "policies": []
      }
    },
    {
      "method": "POST",
      "path": "/important-remarks",
      "handler": "important-remarks.create",
      "config": {
        "policies": []
      }
    },
    {
      "method": "PUT",
      "path": "/important-remarks/:id",
      "handler": "important-remarks.update",
      "config": {
        "policies": []
      }
    },
    {
      "method": "DELETE",
      "path": "/important-remarks/:id",
      "handler": "important-remarks.delete",
      "config": {
        "policies": []
      }
    }
  ]
}
