{
  "routes": [
    {
      "method": "GET",
      "path": "/electronic-service-services",
      "handler": "electronic-service-service.find",
      "config": {
        "policies": []
      }
    },
    {
      "method": "GET",
      "path": "/electronic-service-services/count",
      "handler": "electronic-service-service.count",
      "config": {
        "policies": []
      }
    },
    {
      "method": "GET",
      "path": "/electronic-service-services/:id",
      "handler": "electronic-service-service.findOne",
      "config": {
        "policies": []
      }
    },
    {
      "method": "POST",
      "path": "/electronic-service-services",
      "handler": "electronic-service-service.create",
      "config": {
        "policies": []
      }
    },
    {
      "method": "PUT",
      "path": "/electronic-service-services/:id",
      "handler": "electronic-service-service.update",
      "config": {
        "policies": []
      }
    },
    {
      "method": "DELETE",
      "path": "/electronic-service-services/:id",
      "handler": "electronic-service-service.delete",
      "config": {
        "policies": []
      }
    }
  ]
}
