{
  "routes": [
    {
      "method": "GET",
      "path": "/e-participations",
      "handler": "e-participation.find",
      "config": {
        "policies": []
      }
    },
    {
      "method": "GET",
      "path": "/e-participations/count",
      "handler": "e-participation.count",
      "config": {
        "policies": []
      }
    },
    {
      "method": "GET",
      "path": "/e-participations/:id",
      "handler": "e-participation.findOne",
      "config": {
        "policies": []
      }
    },
    {
      "method": "POST",
      "path": "/e-participations",
      "handler": "e-participation.create",
      "config": {
        "policies": []
      }
    },
    {
      "method": "PUT",
      "path": "/e-participations/:id",
      "handler": "e-participation.update",
      "config": {
        "policies": []
      }
    },
    {
      "method": "DELETE",
      "path": "/e-participations/:id",
      "handler": "e-participation.delete",
      "config": {
        "policies": []
      }
    }
  ]
}
