{
  "paths": {
    "/annual-indicators": {
      "get": {
        "deprecated": false,
        "description": "Find all the annual-indicators's records",
        "responses": {
          "200": {
            "description": "Retrieve annual-indicators document(s)",
            "content": {
              "application/json": {
                "schema": {
                  "properties": {
                    "foo": {
                      "type": "string"
                    }
                  }
                }
              }
            }
          },
          "403": {
            "description": "Forbidden",
            "content": {
              "application/json": {
                "schema": {
                  "$ref": "#/components/schemas/Error"
                }
              }
            }
          },
          "404": {
            "description": "Not found",
            "content": {
              "application/json": {
                "schema": {
                  "$ref": "#/components/schemas/Error"
                }
              }
            }
          },
          "default": {
            "description": "unexpected error",
            "content": {
              "application/json": {
                "schema": {
                  "$ref": "#/components/schemas/Error"
                }
              }
            }
          }
        },
        "summary": "",
        "tags": [
          "Annual-indicators"
        ],
        "parameters": [
          {
            "name": "_limit",
            "in": "query",
            "required": false,
            "description": "Maximum number of results possible",
            "schema": {
              "type": "integer"
            },
            "deprecated": false
          },
          {
            "name": "_sort",
            "in": "query",
            "required": false,
            "description": "Sort according to a specific field.",
            "schema": {
              "type": "string"
            },
            "deprecated": false
          },
          {
            "name": "_start",
            "in": "query",
            "required": false,
            "description": "Skip a specific number of entries (especially useful for pagination)",
            "schema": {
              "type": "integer"
            },
            "deprecated": false
          },
          {
            "name": "=",
            "in": "query",
            "required": false,
            "description": "Get entries that matches exactly your input",
            "schema": {
              "type": "string"
            },
            "deprecated": false
          },
          {
            "name": "_ne",
            "in": "query",
            "required": false,
            "description": "Get records that are not equals to something",
            "schema": {
              "type": "string"
            },
            "deprecated": false
          },
          {
            "name": "_lt",
            "in": "query",
            "required": false,
            "description": "Get record that are lower than a value",
            "schema": {
              "type": "string"
            },
            "deprecated": false
          },
          {
            "name": "_lte",
            "in": "query",
            "required": false,
            "description": "Get records that are lower than or equal to a value",
            "schema": {
              "type": "string"
            },
            "deprecated": false
          },
          {
            "name": "_gt",
            "in": "query",
            "required": false,
            "description": "Get records that are greater than a value",
            "schema": {
              "type": "string"
            },
            "deprecated": false
          },
          {
            "name": "_gte",
            "in": "query",
            "required": false,
            "description": "Get records that are greater than  or equal a value",
            "schema": {
              "type": "string"
            },
            "deprecated": false
          },
          {
            "name": "_contains",
            "in": "query",
            "required": false,
            "description": "Get records that contains a value",
            "schema": {
              "type": "string"
            },
            "deprecated": false
          },
          {
            "name": "_containss",
            "in": "query",
            "required": false,
            "description": "Get records that contains (case sensitive) a value",
            "schema": {
              "type": "string"
            },
            "deprecated": false
          },
          {
            "name": "_in",
            "in": "query",
            "required": false,
            "description": "Get records that matches any value in the array of values",
            "schema": {
              "type": "array",
              "items": {
                "type": "string"
              }
            },
            "deprecated": false
          },
          {
            "name": "_nin",
            "in": "query",
            "required": false,
            "description": "Get records that doesn't match any value in the array of values",
            "schema": {
              "type": "array",
              "items": {
                "type": "string"
              }
            },
            "deprecated": false
          }
        ]
      },
      "post": {
        "deprecated": false,
        "description": "Create a new annual-indicators record",
        "responses": {
          "200": {
            "description": "Retrieve annual-indicators document(s)",
            "content": {
              "application/json": {
                "schema": {
                  "properties": {
                    "foo": {
                      "type": "string"
                    }
                  }
                }
              }
            }
          },
          "403": {
            "description": "Forbidden",
            "content": {
              "application/json": {
                "schema": {
                  "$ref": "#/components/schemas/Error"
                }
              }
            }
          },
          "404": {
            "description": "Not found",
            "content": {
              "application/json": {
                "schema": {
                  "$ref": "#/components/schemas/Error"
                }
              }
            }
          },
          "default": {
            "description": "unexpected error",
            "content": {
              "application/json": {
                "schema": {
                  "$ref": "#/components/schemas/Error"
                }
              }
            }
          }
        },
        "summary": "",
        "tags": [
          "Annual-indicators"
        ],
        "requestBody": {
          "description": "",
          "required": true,
          "content": {
            "application/json": {
              "schema": {
                "$ref": "#/components/schemas/NewAnnual-indicators"
              }
            }
          }
        }
      }
    },
    "/annual-indicators/count": {
      "get": {
        "deprecated": false,
        "description": "Retrieve the number of annual-indicators documents",
        "responses": {
          "200": {
            "description": "Retrieve annual-indicators document(s)",
            "content": {
              "application/json": {
                "schema": {
                  "properties": {
                    "foo": {
                      "type": "string"
                    }
                  }
                }
              }
            }
          },
          "403": {
            "description": "Forbidden",
            "content": {
              "application/json": {
                "schema": {
                  "$ref": "#/components/schemas/Error"
                }
              }
            }
          },
          "404": {
            "description": "Not found",
            "content": {
              "application/json": {
                "schema": {
                  "$ref": "#/components/schemas/Error"
                }
              }
            }
          },
          "default": {
            "description": "unexpected error",
            "content": {
              "application/json": {
                "schema": {
                  "$ref": "#/components/schemas/Error"
                }
              }
            }
          }
        },
        "summary": "",
        "tags": [
          "Annual-indicators"
        ],
        "parameters": []
      }
    },
    "/annual-indicators/{id}": {
      "get": {
        "deprecated": false,
        "description": "Find one annual-indicators record",
        "responses": {
          "200": {
            "description": "Retrieve annual-indicators document(s)",
            "content": {
              "application/json": {
                "schema": {
                  "properties": {
                    "foo": {
                      "type": "string"
                    }
                  }
                }
              }
            }
          },
          "403": {
            "description": "Forbidden",
            "content": {
              "application/json": {
                "schema": {
                  "$ref": "#/components/schemas/Error"
                }
              }
            }
          },
          "404": {
            "description": "Not found",
            "content": {
              "application/json": {
                "schema": {
                  "$ref": "#/components/schemas/Error"
                }
              }
            }
          },
          "default": {
            "description": "unexpected error",
            "content": {
              "application/json": {
                "schema": {
                  "$ref": "#/components/schemas/Error"
                }
              }
            }
          }
        },
        "summary": "",
        "tags": [
          "Annual-indicators"
        ],
        "parameters": [
          {
            "name": "id",
            "in": "path",
            "description": "",
            "deprecated": false,
            "required": true,
            "schema": {
              "type": "string"
            }
          }
        ]
      },
      "put": {
        "deprecated": false,
        "description": "Update a single annual-indicators record",
        "responses": {
          "200": {
            "description": "Retrieve annual-indicators document(s)",
            "content": {
              "application/json": {
                "schema": {
                  "properties": {
                    "foo": {
                      "type": "string"
                    }
                  }
                }
              }
            }
          },
          "403": {
            "description": "Forbidden",
            "content": {
              "application/json": {
                "schema": {
                  "$ref": "#/components/schemas/Error"
                }
              }
            }
          },
          "404": {
            "description": "Not found",
            "content": {
              "application/json": {
                "schema": {
                  "$ref": "#/components/schemas/Error"
                }
              }
            }
          },
          "default": {
            "description": "unexpected error",
            "content": {
              "application/json": {
                "schema": {
                  "$ref": "#/components/schemas/Error"
                }
              }
            }
          }
        },
        "summary": "",
        "tags": [
          "Annual-indicators"
        ],
        "requestBody": {
          "description": "",
          "required": true,
          "content": {
            "application/json": {
              "schema": {
                "$ref": "#/components/schemas/NewAnnual-indicators"
              }
            }
          }
        },
        "parameters": [
          {
            "name": "id",
            "in": "path",
            "description": "",
            "deprecated": false,
            "required": true,
            "schema": {
              "type": "string"
            }
          }
        ]
      },
      "delete": {
        "deprecated": false,
        "description": "Delete a single annual-indicators record",
        "responses": {
          "200": {
            "description": "deletes a single annual-indicators based on the ID supplied",
            "content": {
              "application/json": {
                "schema": {
                  "type": "integer",
                  "format": "int64"
                }
              }
            }
          },
          "403": {
            "description": "Forbidden",
            "content": {
              "application/json": {
                "schema": {
                  "$ref": "#/components/schemas/Error"
                }
              }
            }
          },
          "404": {
            "description": "Not found",
            "content": {
              "application/json": {
                "schema": {
                  "$ref": "#/components/schemas/Error"
                }
              }
            }
          },
          "default": {
            "description": "unexpected error",
            "content": {
              "application/json": {
                "schema": {
                  "$ref": "#/components/schemas/Error"
                }
              }
            }
          }
        },
        "summary": "",
        "tags": [
          "Annual-indicators"
        ],
        "parameters": [
          {
            "name": "id",
            "in": "path",
            "description": "",
            "deprecated": false,
            "required": true,
            "schema": {
              "type": "string"
            }
          }
        ]
      }
    }
  },
  "components": {
    "schemas": {
      "Annual-indicators": {
        "required": [
          "id"
        ],
        "properties": {
          "id": {
            "type": "string"
          },
          "heading": {
            "type": "string"
          },
          "details": {
            "type": "string"
          },
          "link": {
            "type": "string"
          },
          "image": {
            "type": "array",
            "items": {
              "required": [
                "id",
                "name",
                "hash",
                "mime",
                "size",
                "url",
                "provider"
              ],
              "properties": {
                "id": {
                  "type": "string"
                },
                "name": {
                  "type": "string"
                },
                "alternativeText": {
                  "type": "string"
                },
                "caption": {
                  "type": "string"
                },
                "width": {
                  "type": "integer"
                },
                "height": {
                  "type": "integer"
                },
                "formats": {
                  "type": "object"
                },
                "hash": {
                  "type": "string"
                },
                "ext": {
                  "type": "string"
                },
                "mime": {
                  "type": "string"
                },
                "size": {
                  "type": "number"
                },
                "url": {
                  "type": "string"
                },
                "previewUrl": {
                  "type": "string"
                },
                "provider": {
                  "type": "string"
                },
                "provider_metadata": {
                  "type": "object"
                },
                "related": {
                  "type": "string"
                },
                "created_by": {
                  "type": "string"
                },
                "updated_by": {
                  "type": "string"
                }
              }
            }
          },
          "file": {
            "type": "array",
            "items": {
              "required": [
                "id",
                "name",
                "hash",
                "mime",
                "size",
                "url",
                "provider"
              ],
              "properties": {
                "id": {
                  "type": "string"
                },
                "name": {
                  "type": "string"
                },
                "alternativeText": {
                  "type": "string"
                },
                "caption": {
                  "type": "string"
                },
                "width": {
                  "type": "integer"
                },
                "height": {
                  "type": "integer"
                },
                "formats": {
                  "type": "object"
                },
                "hash": {
                  "type": "string"
                },
                "ext": {
                  "type": "string"
                },
                "mime": {
                  "type": "string"
                },
                "size": {
                  "type": "number"
                },
                "url": {
                  "type": "string"
                },
                "previewUrl": {
                  "type": "string"
                },
                "provider": {
                  "type": "string"
                },
                "provider_metadata": {
                  "type": "object"
                },
                "related": {
                  "type": "string"
                },
                "created_by": {
                  "type": "string"
                },
                "updated_by": {
                  "type": "string"
                }
              }
            }
          },
          "users_permissions_user": {
            "required": [
              "id",
              "username",
              "email"
            ],
            "properties": {
              "id": {
                "type": "string"
              },
              "username": {
                "type": "string"
              },
              "email": {
                "type": "string"
              },
              "provider": {
                "type": "string"
              },
              "password": {
                "type": "string"
              },
              "resetPasswordToken": {
                "type": "string"
              },
              "confirmationToken": {
                "type": "string"
              },
              "confirmed": {
                "type": "boolean"
              },
              "blocked": {
                "type": "boolean"
              },
              "role": {
                "type": "string"
              },
              "posts": {
                "type": "array",
                "items": {
                  "type": "string"
                }
              },
              "heac_news": {
                "type": "array",
                "items": {
                  "type": "string"
                }
              },
              "sliders": {
                "type": "array",
                "items": {
                  "type": "string"
                }
              },
              "galleries": {
                "type": "array",
                "items": {
                  "type": "string"
                }
              },
              "programs": {
                "type": "array",
                "items": {
                  "type": "string"
                }
              },
              "electronic_service_services": {
                "type": "array",
                "items": {
                  "type": "string"
                }
              },
              "statistic": {
                "type": "string"
              },
              "data_exchange": {
                "type": "string"
              },
              "institution": {
                "type": "string"
              },
              "admission_statistics": {
                "type": "array",
                "items": {
                  "type": "string"
                }
              },
              "advertisement_form_menus": {
                "type": "array",
                "items": {
                  "type": "string"
                }
              },
              "annual_indicators": {
                "type": "array",
                "items": {
                  "type": "string"
                }
              },
              "e_participations": {
                "type": "array",
                "items": {
                  "type": "string"
                }
              },
              "important_remarks": {
                "type": "array",
                "items": {
                  "type": "string"
                }
              },
              "privacy_policies": {
                "type": "array",
                "items": {
                  "type": "string"
                }
              },
              "privacy_statements": {
                "type": "array",
                "items": {
                  "type": "string"
                }
              },
              "statistical_indicators": {
                "type": "array",
                "items": {
                  "type": "string"
                }
              },
              "terms_of_conditions": {
                "type": "array",
                "items": {
                  "type": "string"
                }
              },
              "membership_tables": {
                "type": "array",
                "items": {
                  "type": "string"
                }
              },
              "instituional_tables": {
                "type": "array",
                "items": {
                  "type": "string"
                }
              },
              "created_by": {
                "type": "string"
              },
              "updated_by": {
                "type": "string"
              }
            }
          },
          "pdfs": {
            "type": "array",
            "items": {
              "required": [
                "id"
              ],
              "properties": {
                "id": {
                  "type": "string"
                },
                "title": {
                  "type": "string"
                },
                "pdfBook": {
                  "type": "string"
                },
                "adding_changes_to_program_preference": {
                  "type": "string"
                },
                "advertisement_form_menu": {
                  "type": "string"
                },
                "annual_indicator": {
                  "type": "string"
                },
                "admission_statistic": {
                  "type": "string"
                },
                "e_participation": {
                  "type": "string"
                },
                "important_remark": {
                  "type": "string"
                },
                "privacy_policy": {
                  "type": "string"
                },
                "privacy_statement": {
                  "type": "string"
                },
                "statistical_indicator": {
                  "type": "string"
                },
                "students_who_re_sit_examination": {
                  "type": "string"
                },
                "terms_of_condition": {
                  "type": "string"
                },
                "alumni_survey": {
                  "type": "string"
                },
                "announcement": {
                  "type": "string"
                },
                "award": {
                  "type": "string"
                },
                "college": {
                  "type": "string"
                },
                "data_exchange": {
                  "type": "string"
                },
                "date": {
                  "type": "string"
                },
                "electronic_service": {
                  "type": "string"
                },
                "general_education_diploma_graduate": {
                  "type": "string"
                },
                "guide": {
                  "type": "string"
                },
                "heac_new": {
                  "type": "string"
                },
                "institution": {
                  "type": "string"
                },
                "open_datum": {
                  "type": "string"
                },
                "policy": {
                  "type": "string"
                },
                "program": {
                  "type": "string"
                },
                "registration_at_heac_system": {
                  "type": "string"
                },
                "seat_allocation_and_announcement_of_result": {
                  "type": "string"
                },
                "service": {
                  "type": "string"
                },
                "statistic": {
                  "type": "string"
                },
                "students_with_disability": {
                  "type": "string"
                },
                "support": {
                  "type": "string"
                },
                "tender": {
                  "type": "string"
                },
                "the_regulation_of_the_higher_education_admission_system": {
                  "type": "string"
                },
                "trial_allocation": {
                  "type": "string"
                },
                "localizations": {
                  "type": "array",
                  "items": {
                    "type": "string"
                  }
                },
                "locale": {
                  "type": "string"
                },
                "published_at": {
                  "type": "string"
                },
                "created_by": {
                  "type": "string"
                },
                "updated_by": {
                  "type": "string"
                }
              }
            }
          },
          "localizations": {
            "type": "array",
            "items": {
              "required": [
                "id"
              ],
              "properties": {
                "id": {
                  "type": "string"
                },
                "heading": {
                  "type": "string"
                },
                "details": {
                  "type": "string"
                },
                "link": {
                  "type": "string"
                },
                "image": {
                  "type": "array",
                  "items": {
                    "type": "string"
                  }
                },
                "file": {
                  "type": "array",
                  "items": {
                    "type": "string"
                  }
                },
                "users_permissions_user": {
                  "type": "string"
                },
                "pdfs": {
                  "type": "array",
                  "items": {
                    "type": "string"
                  }
                },
                "localizations": {
                  "type": "array",
                  "items": {
                    "type": "string"
                  }
                },
                "locale": {
                  "type": "string"
                },
                "published_at": {
                  "type": "string"
                },
                "created_by": {
                  "type": "string"
                },
                "updated_by": {
                  "type": "string"
                }
              }
            }
          },
          "locale": {
            "type": "string"
          },
          "published_at": {
            "type": "string",
            "format": "date-time"
          }
        }
      },
      "NewAnnual-indicators": {
        "properties": {
          "heading": {
            "type": "string"
          },
          "details": {
            "type": "string"
          },
          "link": {
            "type": "string"
          },
          "users_permissions_user": {
            "type": "string"
          },
          "pdfs": {
            "type": "array",
            "items": {
              "type": "string"
            }
          },
          "localizations": {
            "type": "array",
            "items": {
              "type": "string"
            }
          },
          "locale": {
            "type": "string"
          },
          "published_at": {
            "type": "string",
            "format": "date-time"
          },
          "created_by": {
            "type": "string"
          },
          "updated_by": {
            "type": "string"
          }
        }
      }
    }
  },
  "tags": []
}