{
  "routes": [
    {
      "method": "GET",
      "path": "/general-education-diploma-graduates",
      "handler": "general-education-diploma-graduates.find",
      "config": {
        "policies": []
      }
    },
    {
      "method": "GET",
      "path": "/general-education-diploma-graduates/count",
      "handler": "general-education-diploma-graduates.count",
      "config": {
        "policies": []
      }
    },
    {
      "method": "GET",
      "path": "/general-education-diploma-graduates/:id",
      "handler": "general-education-diploma-graduates.findOne",
      "config": {
        "policies": []
      }
    },
    {
      "method": "POST",
      "path": "/general-education-diploma-graduates",
      "handler": "general-education-diploma-graduates.create",
      "config": {
        "policies": []
      }
    },
    {
      "method": "PUT",
      "path": "/general-education-diploma-graduates/:id",
      "handler": "general-education-diploma-graduates.update",
      "config": {
        "policies": []
      }
    },
    {
      "method": "DELETE",
      "path": "/general-education-diploma-graduates/:id",
      "handler": "general-education-diploma-graduates.delete",
      "config": {
        "policies": []
      }
    }
  ]
}
