{
  "kind": "collectionType",
  "collectionName": "program_codes",
  "info": {
    "name": "programCode",
    "description": ""
  },
  "options": {
    "increments": true,
    "timestamps": true,
    "draftAndPublish": true
  },
  "pluginOptions": {
    "i18n": {
      "localized": true
    }
  },
  "attributes": {
    "title": {
      "pluginOptions": {
        "i18n": {
          "localized": true
        }
      },
      "type": "text",
      "required": true,
      "unique": true
    },
    "description": {
      "pluginOptions": {
        "i18n": {
          "localized": true
        }
      },
      "type": "richtext"
    },
    "colleges": {
      "via": "program_codes",
      "collection": "college"
    }
  }
}
