{
  "paths": {
    "/instituional-tables": {
      "get": {
        "deprecated": false,
        "description": "Find all the instituional-tables's records",
        "responses": {
          "200": {
            "description": "Retrieve instituional-tables document(s)",
            "content": {
              "application/json": {
                "schema": {
                  "properties": {
                    "foo": {
                      "type": "string"
                    }
                  }
                }
              }
            }
          },
          "403": {
            "description": "Forbidden",
            "content": {
              "application/json": {
                "schema": {
                  "$ref": "#/components/schemas/Error"
                }
              }
            }
          },
          "404": {
            "description": "Not found",
            "content": {
              "application/json": {
                "schema": {
                  "$ref": "#/components/schemas/Error"
                }
              }
            }
          },
          "default": {
            "description": "unexpected error",
            "content": {
              "application/json": {
                "schema": {
                  "$ref": "#/components/schemas/Error"
                }
              }
            }
          }
        },
        "summary": "",
        "tags": [
          "Instituional-tables"
        ],
        "parameters": [
          {
            "name": "_limit",
            "in": "query",
            "required": false,
            "description": "Maximum number of results possible",
            "schema": {
              "type": "integer"
            },
            "deprecated": false
          },
          {
            "name": "_sort",
            "in": "query",
            "required": false,
            "description": "Sort according to a specific field.",
            "schema": {
              "type": "string"
            },
            "deprecated": false
          },
          {
            "name": "_start",
            "in": "query",
            "required": false,
            "description": "Skip a specific number of entries (especially useful for pagination)",
            "schema": {
              "type": "integer"
            },
            "deprecated": false
          },
          {
            "name": "=",
            "in": "query",
            "required": false,
            "description": "Get entries that matches exactly your input",
            "schema": {
              "type": "string"
            },
            "deprecated": false
          },
          {
            "name": "_ne",
            "in": "query",
            "required": false,
            "description": "Get records that are not equals to something",
            "schema": {
              "type": "string"
            },
            "deprecated": false
          },
          {
            "name": "_lt",
            "in": "query",
            "required": false,
            "description": "Get record that are lower than a value",
            "schema": {
              "type": "string"
            },
            "deprecated": false
          },
          {
            "name": "_lte",
            "in": "query",
            "required": false,
            "description": "Get records that are lower than or equal to a value",
            "schema": {
              "type": "string"
            },
            "deprecated": false
          },
          {
            "name": "_gt",
            "in": "query",
            "required": false,
            "description": "Get records that are greater than a value",
            "schema": {
              "type": "string"
            },
            "deprecated": false
          },
          {
            "name": "_gte",
            "in": "query",
            "required": false,
            "description": "Get records that are greater than  or equal a value",
            "schema": {
              "type": "string"
            },
            "deprecated": false
          },
          {
            "name": "_contains",
            "in": "query",
            "required": false,
            "description": "Get records that contains a value",
            "schema": {
              "type": "string"
            },
            "deprecated": false
          },
          {
            "name": "_containss",
            "in": "query",
            "required": false,
            "description": "Get records that contains (case sensitive) a value",
            "schema": {
              "type": "string"
            },
            "deprecated": false
          },
          {
            "name": "_in",
            "in": "query",
            "required": false,
            "description": "Get records that matches any value in the array of values",
            "schema": {
              "type": "array",
              "items": {
                "type": "string"
              }
            },
            "deprecated": false
          },
          {
            "name": "_nin",
            "in": "query",
            "required": false,
            "description": "Get records that doesn't match any value in the array of values",
            "schema": {
              "type": "array",
              "items": {
                "type": "string"
              }
            },
            "deprecated": false
          }
        ]
      },
      "post": {
        "deprecated": false,
        "description": "Create a new instituional-tables record",
        "responses": {
          "200": {
            "description": "Retrieve instituional-tables document(s)",
            "content": {
              "application/json": {
                "schema": {
                  "properties": {
                    "foo": {
                      "type": "string"
                    }
                  }
                }
              }
            }
          },
          "403": {
            "description": "Forbidden",
            "content": {
              "application/json": {
                "schema": {
                  "$ref": "#/components/schemas/Error"
                }
              }
            }
          },
          "404": {
            "description": "Not found",
            "content": {
              "application/json": {
                "schema": {
                  "$ref": "#/components/schemas/Error"
                }
              }
            }
          },
          "default": {
            "description": "unexpected error",
            "content": {
              "application/json": {
                "schema": {
                  "$ref": "#/components/schemas/Error"
                }
              }
            }
          }
        },
        "summary": "",
        "tags": [
          "Instituional-tables"
        ],
        "requestBody": {
          "description": "",
          "required": true,
          "content": {
            "application/json": {
              "schema": {
                "$ref": "#/components/schemas/NewInstituional-tables"
              }
            }
          }
        }
      }
    },
    "/instituional-tables/count": {
      "get": {
        "deprecated": false,
        "description": "Retrieve the number of instituional-tables documents",
        "responses": {
          "200": {
            "description": "Retrieve instituional-tables document(s)",
            "content": {
              "application/json": {
                "schema": {
                  "properties": {
                    "foo": {
                      "type": "string"
                    }
                  }
                }
              }
            }
          },
          "403": {
            "description": "Forbidden",
            "content": {
              "application/json": {
                "schema": {
                  "$ref": "#/components/schemas/Error"
                }
              }
            }
          },
          "404": {
            "description": "Not found",
            "content": {
              "application/json": {
                "schema": {
                  "$ref": "#/components/schemas/Error"
                }
              }
            }
          },
          "default": {
            "description": "unexpected error",
            "content": {
              "application/json": {
                "schema": {
                  "$ref": "#/components/schemas/Error"
                }
              }
            }
          }
        },
        "summary": "",
        "tags": [
          "Instituional-tables"
        ],
        "parameters": []
      }
    },
    "/instituional-tables/{id}": {
      "get": {
        "deprecated": false,
        "description": "Find one instituional-tables record",
        "responses": {
          "200": {
            "description": "Retrieve instituional-tables document(s)",
            "content": {
              "application/json": {
                "schema": {
                  "properties": {
                    "foo": {
                      "type": "string"
                    }
                  }
                }
              }
            }
          },
          "403": {
            "description": "Forbidden",
            "content": {
              "application/json": {
                "schema": {
                  "$ref": "#/components/schemas/Error"
                }
              }
            }
          },
          "404": {
            "description": "Not found",
            "content": {
              "application/json": {
                "schema": {
                  "$ref": "#/components/schemas/Error"
                }
              }
            }
          },
          "default": {
            "description": "unexpected error",
            "content": {
              "application/json": {
                "schema": {
                  "$ref": "#/components/schemas/Error"
                }
              }
            }
          }
        },
        "summary": "",
        "tags": [
          "Instituional-tables"
        ],
        "parameters": [
          {
            "name": "id",
            "in": "path",
            "description": "",
            "deprecated": false,
            "required": true,
            "schema": {
              "type": "string"
            }
          }
        ]
      },
      "put": {
        "deprecated": false,
        "description": "Update a single instituional-tables record",
        "responses": {
          "200": {
            "description": "Retrieve instituional-tables document(s)",
            "content": {
              "application/json": {
                "schema": {
                  "properties": {
                    "foo": {
                      "type": "string"
                    }
                  }
                }
              }
            }
          },
          "403": {
            "description": "Forbidden",
            "content": {
              "application/json": {
                "schema": {
                  "$ref": "#/components/schemas/Error"
                }
              }
            }
          },
          "404": {
            "description": "Not found",
            "content": {
              "application/json": {
                "schema": {
                  "$ref": "#/components/schemas/Error"
                }
              }
            }
          },
          "default": {
            "description": "unexpected error",
            "content": {
              "application/json": {
                "schema": {
                  "$ref": "#/components/schemas/Error"
                }
              }
            }
          }
        },
        "summary": "",
        "tags": [
          "Instituional-tables"
        ],
        "requestBody": {
          "description": "",
          "required": true,
          "content": {
            "application/json": {
              "schema": {
                "$ref": "#/components/schemas/NewInstituional-tables"
              }
            }
          }
        },
        "parameters": [
          {
            "name": "id",
            "in": "path",
            "description": "",
            "deprecated": false,
            "required": true,
            "schema": {
              "type": "string"
            }
          }
        ]
      },
      "delete": {
        "deprecated": false,
        "description": "Delete a single instituional-tables record",
        "responses": {
          "200": {
            "description": "deletes a single instituional-tables based on the ID supplied",
            "content": {
              "application/json": {
                "schema": {
                  "type": "integer",
                  "format": "int64"
                }
              }
            }
          },
          "403": {
            "description": "Forbidden",
            "content": {
              "application/json": {
                "schema": {
                  "$ref": "#/components/schemas/Error"
                }
              }
            }
          },
          "404": {
            "description": "Not found",
            "content": {
              "application/json": {
                "schema": {
                  "$ref": "#/components/schemas/Error"
                }
              }
            }
          },
          "default": {
            "description": "unexpected error",
            "content": {
              "application/json": {
                "schema": {
                  "$ref": "#/components/schemas/Error"
                }
              }
            }
          }
        },
        "summary": "",
        "tags": [
          "Instituional-tables"
        ],
        "parameters": [
          {
            "name": "id",
            "in": "path",
            "description": "",
            "deprecated": false,
            "required": true,
            "schema": {
              "type": "string"
            }
          }
        ]
      }
    }
  },
  "components": {
    "schemas": {
      "Instituional-tables": {
        "required": [
          "id"
        ],
        "properties": {
          "id": {
            "type": "string"
          },
          "location": {
            "type": "string"
          },
          "institutionName": {
            "type": "string"
          },
          "code": {
            "type": "string"
          },
          "website": {
            "type": "string"
          },
          "phone": {
            "type": "string"
          },
          "fax": {
            "type": "string"
          },
          "institution": {
            "required": [
              "id"
            ],
            "properties": {
              "id": {
                "type": "string"
              },
              "heading": {
                "type": "string"
              },
              "details": {
                "type": "string"
              },
              "link": {
                "type": "string"
              },
              "image": {
                "type": "array",
                "items": {
                  "type": "string"
                }
              },
              "users_permissions_user": {
                "type": "string"
              },
              "instituional_tables": {
                "type": "array",
                "items": {
                  "type": "string"
                }
              },
              "pdfs": {
                "type": "array",
                "items": {
                  "type": "string"
                }
              },
              "localizations": {
                "type": "array",
                "items": {
                  "type": "string"
                }
              },
              "locale": {
                "type": "string"
              },
              "published_at": {
                "type": "string"
              },
              "created_by": {
                "type": "string"
              },
              "updated_by": {
                "type": "string"
              }
            }
          },
          "users_permissions_user": {
            "required": [
              "id",
              "username",
              "email"
            ],
            "properties": {
              "id": {
                "type": "string"
              },
              "username": {
                "type": "string"
              },
              "email": {
                "type": "string"
              },
              "provider": {
                "type": "string"
              },
              "password": {
                "type": "string"
              },
              "resetPasswordToken": {
                "type": "string"
              },
              "confirmationToken": {
                "type": "string"
              },
              "confirmed": {
                "type": "boolean"
              },
              "blocked": {
                "type": "boolean"
              },
              "role": {
                "type": "string"
              },
              "posts": {
                "type": "array",
                "items": {
                  "type": "string"
                }
              },
              "heac_news": {
                "type": "array",
                "items": {
                  "type": "string"
                }
              },
              "sliders": {
                "type": "array",
                "items": {
                  "type": "string"
                }
              },
              "galleries": {
                "type": "array",
                "items": {
                  "type": "string"
                }
              },
              "programs": {
                "type": "array",
                "items": {
                  "type": "string"
                }
              },
              "electronic_service_services": {
                "type": "array",
                "items": {
                  "type": "string"
                }
              },
              "statistic": {
                "type": "string"
              },
              "data_exchange": {
                "type": "string"
              },
              "institution": {
                "type": "string"
              },
              "admission_statistics": {
                "type": "array",
                "items": {
                  "type": "string"
                }
              },
              "advertisement_form_menus": {
                "type": "array",
                "items": {
                  "type": "string"
                }
              },
              "annual_indicators": {
                "type": "array",
                "items": {
                  "type": "string"
                }
              },
              "e_participations": {
                "type": "array",
                "items": {
                  "type": "string"
                }
              },
              "important_remarks": {
                "type": "array",
                "items": {
                  "type": "string"
                }
              },
              "privacy_policies": {
                "type": "array",
                "items": {
                  "type": "string"
                }
              },
              "privacy_statements": {
                "type": "array",
                "items": {
                  "type": "string"
                }
              },
              "statistical_indicators": {
                "type": "array",
                "items": {
                  "type": "string"
                }
              },
              "terms_of_conditions": {
                "type": "array",
                "items": {
                  "type": "string"
                }
              },
              "membership_tables": {
                "type": "array",
                "items": {
                  "type": "string"
                }
              },
              "instituional_tables": {
                "type": "array",
                "items": {
                  "type": "string"
                }
              },
              "created_by": {
                "type": "string"
              },
              "updated_by": {
                "type": "string"
              }
            }
          },
          "associated_with": {
            "type": "string"
          },
          "localizations": {
            "type": "array",
            "items": {
              "required": [
                "id"
              ],
              "properties": {
                "id": {
                  "type": "string"
                },
                "location": {
                  "type": "string"
                },
                "institutionName": {
                  "type": "string"
                },
                "code": {
                  "type": "string"
                },
                "website": {
                  "type": "string"
                },
                "phone": {
                  "type": "string"
                },
                "fax": {
                  "type": "string"
                },
                "institution": {
                  "type": "string"
                },
                "users_permissions_user": {
                  "type": "string"
                },
                "associated_with": {
                  "type": "string"
                },
                "localizations": {
                  "type": "array",
                  "items": {
                    "type": "string"
                  }
                },
                "locale": {
                  "type": "string"
                },
                "published_at": {
                  "type": "string"
                },
                "created_by": {
                  "type": "string"
                },
                "updated_by": {
                  "type": "string"
                }
              }
            }
          },
          "locale": {
            "type": "string"
          },
          "published_at": {
            "type": "string",
            "format": "date-time"
          }
        }
      },
      "NewInstituional-tables": {
        "properties": {
          "location": {
            "type": "string"
          },
          "institutionName": {
            "type": "string"
          },
          "code": {
            "type": "string"
          },
          "website": {
            "type": "string"
          },
          "phone": {
            "type": "string"
          },
          "fax": {
            "type": "string"
          },
          "institution": {
            "type": "string"
          },
          "users_permissions_user": {
            "type": "string"
          },
          "associated_with": {
            "type": "string"
          },
          "localizations": {
            "type": "array",
            "items": {
              "type": "string"
            }
          },
          "locale": {
            "type": "string"
          },
          "published_at": {
            "type": "string",
            "format": "date-time"
          },
          "created_by": {
            "type": "string"
          },
          "updated_by": {
            "type": "string"
          }
        }
      }
    }
  },
  "tags": []
}